{
  "f9155ac790fd02fadcdeca367b02581c04a353aa6d5aa84409a59f6804c87acd": true,
  "89ed26367cdb9b771858e026f2eb95bfdb90e5ae943e716575327ec325f39c44": true,
  "26fb73165d8806318c33fd154e7a5f8c70df418badf892a3b7812e5efda601b8": true
}